{
  "kind": "singleType",
  "collectionName": "indices",
  "info": {
    "singularName": "index",
    "pluralName": "indices",
    "displayName": "index",
    "description": ""
  },
  "options": {
    "draftAndPublish": true
  },
  "pluginOptions": {},
  "attributes": {
    "title": {
      "type": "string"
    },
    "meta": {
      "type": "enumeration",
      "enum": [
        "meta=value",
        "another=value"
      ]
    }
  }
}
